Project_One
…
Vermont had the largest decrease in murder from 1973 to 1976 while Florida had the largest increase.

statesarrests%>%group_by(State_names,Illiteracy)%>%mutate(total_crime=Rape+Assault+Murder.1973+Murder.1976)%>%summarise(mean(total_crime))%>%arrange(desc(Illiteracy))

## # A tibble: 50 x 3
## # Groups:   State_names [50]
##    State_names    Illiteracy `mean(total_crime)`
##    <fct>               <dbl>               <dbl>
##  1 Louisiana             2.8               300. 
##  2 Mississippi           2.4               305. 
##  3 South Carolina        2.3               328. 
##  4 New Mexico            2.2               338. 
##  5 Texas                 2.2               251. 
##  6 Alabama               2.1               286. 
##  7 Georgia               2                 268. 
##  8 Arkansas              1.9               228. 
##  9 Hawaii                1.9                77.7
## 10 Arizona               1.8               341. 
## # ... with 40 more rows

statesarrests%>%group_by(State_names,`Life Exp`)%>%mutate(total_crime=Rape+Assault+Murder.1973+Murder.1976)%>%summarise(mean(total_crime))%>%arrange(desc(`Life Exp`))

## # A tibble: 50 x 3
## # Groups:   State_names [50]
##    State_names  `Life Exp` `mean(total_crime)`
##    <fct>             <dbl>               <dbl>
##  1 Hawaii             73.6                77.7
##  2 Minnesota          73.0                91.9
##  3 Utah               72.9               151. 
##  4 North Dakota       72.8                54.5
##  5 Nebraska           72.6               126. 
##  6 Kansas             72.6               144. 
##  7 Iowa               72.6                71.8
##  8 Connecticut        72.5               127. 
##  9 Wisconsin          72.5                69.4
## 10 Oregon             72.1               197. 
## # ... with 40 more rows
…
